…
hca_metadata = readRDS("/vast/scratch/users/mangiola.s/human_cell_atlas/metadata.rds")
options("restore_SingleCellExperiment_show" = TRUE)

hca_metadata |> 
    distinct(.sample)

## # A tibble: 12,429 × 1
##    .sample                         
##    <chr>                           
##  1 5f20d7daf6c42f4f915fefd93d309120
##  2 2b449d364b13d4b045111793c78f53e0
##  3 a63ebabb27f83bc4e68db8bb9b2814ae
##  4 03c6a35e026a17b3a0e2c480bde49a81
##  5 c6a711eee7bc60452e57526dba9c814c
##  6 0fd1e7dc5d92dde4afe567186d059a8e
##  7 2d110c356cfded19edce4e90143eb40a
##  8 b560313b5d45f13770d98ae66e882184
##  9 b6e757366b7c70b206c3b8cd553ec355
## 10 be30712ad6fb8f58d6c918d51b792fc7
## # … with 12,419 more rows

hca_metadata |> 
      distinct(file_id)

## # A tibble: 324 × 1
##    file_id                             
##    <chr>                               
##  1 00d626ec-c97e-4b2d-bf17-04bc09e52460
##  2 016fd62b-75f5-4778-a5f0-76bd378a5c0f
##  3 0273924c-0387-4f44-98c5-2292dbaab11e
##  4 0332cf8b-fec3-4e63-a6bc-4cca49a110ac
##  5 03746fce-b248-49d1-9d00-f078e413bb01
##  6 03939949-6033-4ee6-828c-4e2b762a413c
##  7 048287c8-b2f3-4183-a62b-0df2fb17c5d4
##  8 05ca5886-5db1-4ce7-b5cc-6c0df0a068c4
##  9 07beec85-51be-4d73-bb80-8f85b7b643d5
## 10 08247324-7ab7-45c5-8bd6-6c22676761ed
## # … with 314 more rows

hca_metadata |> 
      nrow()

## [1] 28981744

hca_metadata |> 
      distinct(cell_type)

## # A tibble: 497 × 1
##    cell_type                          
##    <chr>                              
##  1 basal cell of prostate epithelium  
##  2 luminal cell of prostate epithelium
##  3 epithelial cell of urethra         
##  4 secretory cell                     
##  5 neuroendocrine cell                
##  6 classical monocyte                 
##  7 enteric smooth muscle cell         
##  8 fibroblast                         
##  9 neural cell                        
## 10 myofibroblast cell                 
## # … with 487 more rows

hca_metadata |> 
    distinct(tissue, file_id) |> 
    count(tissue) |> 
    arrange(desc(n))

## # A tibble: 165 × 2
##    tissue                    n
##    <chr>                 <int>
##  1 blood                    47
##  2 heart left ventricle     46
##  3 cortex of kidney         31
##  4 renal medulla            29
##  5 lung                     27
##  6 liver                    24
##  7 middle temporal gyrus    24
##  8 kidney                   19
##  9 intestine                18
## 10 thymus                   17
## # … with 155 more rows
…
