…
## Obtain Unharmonised Metadata

Various metadata fields are *not* common between datasets, so it does
not make sense for these to live in the main metadata table. However, we
can obtain it using the `get_unharmonised_metadata()` function.

Note how this table has additional columns that are not in the normal
metadata:

``` r
dataset = "838ea006-2369-4e2c-b426-b2a744a2b02b"
unharmonised_meta = get_unharmonised_metadata(dataset)
unharmonised_tbl = dplyr::collect(unharmonised_meta[[dataset]])
unharmonised_tbl
#> # A tibble: 168,860 × 23
#>    cell_     file_id Neuro…¹ Class Subcl…² Super…³ Age.a…⁴ Years…⁵ Cogni…⁶ ADNC 
#>    <chr>     <chr>   <lgl>   <chr> <chr>   <chr>   <chr>   <chr>   <chr>   <chr>
#>  1 GGACGAAG… 838ea0… FALSE   Neur… L4 IT   L4 IT_2 90+ ye… 16 to … Dement… High 
#>  2 TCACGGGA… 838ea0… FALSE   Neur… L4 IT   L4 IT_1 90+ ye… 12 to … Dement… Inte…
#>  3 TCAGTTTT… 838ea0… FALSE   Neur… L4 IT   L4 IT_2 78 to … 16 to … No dem… Low  
#>  4 TCAGTCCT… 838ea0… FALSE   Neur… L4 IT   L4 IT_4 78 to … 16 to … Dement… Inte…
#>  5 AGCCACGC… 838ea0… FALSE   Neur… L4 IT   L4 IT_2 78 to … 19 to … No dem… Inte…
#>  6 CCTCAACC… 838ea0… TRUE    Neur… L4 IT   L4 IT_2 Less t… Refere… Refere… Refe…
#>  7 CTCGACAA… 838ea0… FALSE   Neur… L4 IT   L4 IT_2 78 to … 12 to … No dem… Inte…
#>  8 AGCTACAG… 838ea0… FALSE   Neur… L4 IT   L4 IT_4 90+ ye… 16 to … Dement… High 
#>  9 CTCGAGGG… 838ea0… FALSE   Neur… L4 IT   L4 IT_2 65 to … 16 to … Dement… High 
#> 10 AGTGCCGT… 838ea0… FALSE   Neur… L4 IT   L4 IT_4 90+ ye… 16 to … Dement… High 
#> # … with 168,850 more rows, 13 more variables: Braak.stage <chr>,
#> #   Thal.phase <chr>, CERAD.score <chr>, APOE4.status <chr>,
#> #   Lewy.body.disease.pathology <chr>, LATE.NC.stage <chr>,
#> #   Microinfarct.pathology <chr>, Specimen.ID <chr>, Donor.ID <chr>, PMI <chr>,
#> #   Number.of.UMIs <dbl>, Genes.detected <dbl>,
#> #   Fraction.mitochrondrial.UMIs <dbl>, and abbreviated variable names
#> #   ¹​Neurotypical.reference, ²​Subclass, ³​Supertype, ⁴​Age.at.death, …
```

If we have metadata from the normal metadata table that is from a single
dataset, we can even join this additional metadata into one big data
frame:

``` r
harmonised_meta = get_metadata() |> dplyr::filter(file_id == dataset) |> dplyr::collect()
dplyr::left_join(harmonised_meta, unharmonised_tbl, by=c("file_id", "cell_"))
#> # A tibble: 168,860 × 77
#>    cell_ sample_ cell_…¹ cell_…² confi…³ cell_…⁴ cell_…⁵ cell_…⁶ sampl…⁷ _samp…⁸
#>    <chr> <chr>   <chr>   <chr>     <dbl> <chr>   <chr>   <chr>   <chr>   <chr>  
#>  1 GGAC… f63cb4… L2/3-6… neuron        1 <NA>    <NA>    <NA>    168593… H21.33…
#>  2 TCAC… 0d4d1f… L2/3-6… neuron        1 <NA>    <NA>    <NA>    f7d747… H21.33…
#>  3 TCAG… 3e5a3b… L2/3-6… neuron        1 <NA>    <NA>    <NA>    3417a9… H20.33…
#>  4 TCAG… 7010a3… L2/3-6… neuron        1 <NA>    <NA>    <NA>    246a59… H20.33…
#>  5 AGCC… 82bb9a… L2/3-6… neuron        1 <NA>    <NA>    <NA>    7a8f35… H21.33…
#>  6 CCTC… a233eb… L2/3-6… neuron        1 <NA>    <NA>    <NA>    188243… H18.30…
#>  7 CTCG… 27f104… L2/3-6… neuron        1 <NA>    <NA>    <NA>    a62943… H20.33…
#>  8 AGCT… 0190a2… L2/3-6… neuron        1 <NA>    <NA>    <NA>    c508a8… H20.33…
#>  9 CTCG… 95d846… L2/3-6… neuron        1 <NA>    <NA>    <NA>    29285d… H21.33…
#> 10 AGTG… b0e1c5… L2/3-6… neuron        1 <NA>    <NA>    <NA>    cd7823… H21.33…
#> # … with 168,850 more rows, 67 more variables: assay <chr>,
#> #   assay_ontology_term_id <chr>, file_id_db <chr>,
#> #   cell_type_ontology_term_id <chr>, development_stage <chr>,
#> #   development_stage_ontology_term_id <chr>, disease <chr>,
#> #   disease_ontology_term_id <chr>, ethnicity <chr>,
#> #   ethnicity_ontology_term_id <chr>, experiment___ <chr>, file_id <chr>,
#> #   is_primary_data_x <chr>, organism <chr>, organism_ontology_term_id <chr>, …
```
…
